<?xml version="1.0" encoding="utf-8"?>
<!-- Generator: Adobe Illustrator 19.2.1, SVG Export Plug-In . SVG Version: 6.00 Build 0)  -->
<svg version="1.2" baseProfile="tiny" xmlns="http://www.w3.org/2000/svg" xmlns:xlink="http://www.w3.org/1999/xlink" x="0px"
	 y="0px" width="3435px" height="4455px" viewBox="0 0 3435 4455" xml:space="preserve">
<g id="Artwork">
	<g id="_x30_01">
		<g id="Rear_1_">
			<path id="Base_2_" fill="#3057A6" d="M236.889,1989.439c22.354-111.771,163.09-505.578,204.876-605.831
				c41.785-100.253,47.356-181.016,86.357-270.129c39-89.114,97.492-233.926,155.992-300.76S895.82,631.7,957.106,589.925
				c34.124-23.26,89.167-62.894,142.819-91.591c4.898-2.62,13.6-16.485,26.336-33.261c12.736-16.776,31.704-34.9,38.042-44.048
				c42.578-61.461,59.956-130.023,85.289-130.357c5.753-0.076,8.277-0.224,13.667,0.667c26.223,4.333,57.043,21.054,162.667,32.667
				c110.111,12.106,341.246-11.181,406.667-26c60.333-13.667,101.859-24.041,134.333-33.333
				c44.124-12.625,69.624-21.967,85.558-26.05c2.252-0.577,4.34-1.056,6.296-1.434c33.041-6.383,72.452,107.299,104.3,180.373
				c12.15,27.876,19.751,55.234,30.813,59.283c75.654,27.696,162.405,64.431,207.717,97.517
				c83.567,61.015,259.879,198.399,295.915,237.931c0,0,137.557,130.833,222.936,386.889
				c41.343,123.989,109.719,260.005,172.95,450.87c20.35,61.429,31.009,80.461,41.988,129.963
				c3.888,17.532,51.101,204.871,53.984,215.938c2.883,11.068,22.658,10.287,4.999,45.987
				c-17.66,35.7-106.645,102.377-262.924,167.952c-156.28,65.575-247.419,60.759-317.909,83.976
				c-17.455,5.749-51.985,11.997-51.985,11.997s-66.135-6.495-65.981-4.999c14.459,140.747,30.604,414.557,27.992,445.872
				c-2.612,31.316-10.424,307.979-6.998,410.882c2.578,77.445-4.741,120.101-9.997,176.949c-9.423,101.926-4.393,352.879,0,401.884
				c0.615,6.865,6.988,67.524,7.998,66.981c1.942,22.318,10.185,56.106,17.994,102.97c7.81,46.864,5.464,15.401,24.993,73.979
				c19.529,58.578,30.645,55.976,16.035,103.165c-6.076,19.63-23.434,31.245-23.434,31.245s-411.945,111.883-708.765,80.637
				c-296.828-31.245-367.134-70.299-527.263-82.013c-160.129-11.715-281.208-31.246-445.242-97.632
				c-164.034-66.388-191.752-82.014-207.372-101.538c-15.62-19.523-3.905-39.046,0-74.197c3.905-35.15,19.533-19.523,19.533-109.346
				c0,0,0.402-14.877,8.128-50.701c7.727-35.823,8.673-252.136,8.673-252.136c2.119-33.878,19.055-76.209,25.405-167.244
				c2.331-33.402-4.248-90.86,2.828-130.996c0,0-4.906-45.646-4.999-92.973c-0.092-47.328-6.471-103.039-3.859-186.534
				c2.611-83.494,10.857-251.34,10.857-251.34c-3.304-246.384,0.706-355.94-3.999-445.872
				c-39.398,13.142-121.965,6.998-121.965,6.998s-93.654-11.682-183.947-35.989c-90.294-24.307-197.685-113.742-179.948-143.959"/>
		</g>
		<g id="Front_4_">
			<path id="base" fill-rule="evenodd" fill="#3057A6" d="M771.096,2127c9.328,78.049,17.918,152.179,29,227
				c3.033,20.483,6.207,38.203,8,56c1.867,18.526-4.133,33.815-8,54c-7.037,36.742-9.277,76.086-12,116
				c-5.262,77.153-18.521,154.88-22,234c-1.793,40.793-0.086,81.463,3,123c6.074,81.736-3.771,165.061-8,244
				c-2.189,40.872-1.689,82.056-7,121c-10.242,75.111-27.645,147.447-36,220c-4.459,38.717-6.258,77.504-13,115
				c-6.557,36.463-13.492,72.209-21,107c-3.652,16.926-7.852,35.207-10,54c-2.254,19.713-0.051,40.67-3,61
				c-2.52,17.377-12.348,31.303-16,48c-1.924,8.793-2.348,18.54-4,28c-3.268,18.703-8.428,38.852,2,54
				c16.547,24.032,55.541,43.015,88,58c134.988,62.319,276.412,112.578,452,132c44.111,4.879,88.566,6.881,134,12
				c86.16,9.707,167.861,30.625,246,45c80.713,14.848,169.791,27.879,257,35c92.789,7.576,187.934,0.42,277-9
				c153.217-16.205,295.072-43.141,435-76c20.691-4.859,42.997-7.148,58-14c17.053-7.787,23.367-25.096,28-44
				c5.328-21.736,1.156-39.575-6-58c-6.835-17.6-12.484-35.389-19-53c-6.85-18.518-13.768-34.699-17-55
				c-3.605-22.641-4.99-42.916-10-62c-4.854-18.492-11.549-35.613-18-54c-27.611-78.711-0.947-173.064,12-250
				c7.047-41.868,10-85.52,10-134c0-46.855,1.899-94.884-2-140c-7.483-86.595-36.732-156.895-42-246
				c-1.361-23.037,0.636-47.119,1-71c0.362-23.577-1-47.097-1-71c0-93.702-3.008-190.226-7-281c-4.207-95.715-2-191.787-2-286
				c0-94.921-4.574-188.442-7-280c27.553,36.358,50.774,80.794,75,124c23.941,42.695,47.092,87.658,85,116
				c136.461-44.563,262.095-99.786,392-154c32.521-13.572,65.686-26.007,92-44c51.987-35.545,93.875-83.873,140-130
				c10.287-10.287,21.541-21.203,36-32c7.898-5.897,36.355-21.175,38-29c1.305-6.206-5.825-24.697-10-36
				c-27.957-75.696-77.288-139.478-120-199c-51.393-71.621-105.664-140.896-150-215c-23.086-38.589-40.851-80.939-60-123
				c-57.055-125.329-132.639-230.86-189-357c-27.111-60.678-57.112-127.135-92-182c-11.703-18.406-28.004-31.815-41-50
				c-6.777-9.484-12.185-18.89-17-29c-4.947-10.393-7.571-22.656-14-31c-13.063-16.956-29.486-31.019-44-47
				c-14.588-16.063-27.902-32.381-44-47c-16.027-14.556-34.964-24.878-55-36c-39.975-22.19-80.252-41.698-119-64
				c-75.846-43.655-153.234-88.778-236-128c-21.51-10.193-42.197-18.552-69-22c-26.746-3.44-59.982-6.889-88-7
				c-14.02-0.056-30.863,4.97-47,8c-104.711,19.662-213.631,43.709-331,51c-72.119,4.48-144.115,0.655-207-8
				c-62.92-8.66-121.238-24.066-183-35c-63.803-11.295-130.553,13.37-179,32c-107.895,41.49-198.889,88.744-288,148
				c-21.143,14.06-39.406,32.408-58,51c-19.441,19.441-38.301,36.257-52,57c-14.045,21.267-31.33,42-46,64
				c-14.877,22.31-26.875,46.885-44,65c-18.599,19.674-38.944,34.729-53.999,55c-15.143,20.389-27.006,43.42-42,67
				c-14.217,22.356-27.734,45.009-40,70c-12.051,24.551-20.234,50.568-30,79c-18.627,54.223-42.516,105.244-57,161
				c-7.957,30.628-13.133,59.729-23,87c-9.69,26.774-20.893,52.139-32,77c-23.193,51.907-39.559,102.652-58,160
				c-16.945,52.69-35.777,108.938-54,164c-13.133,39.684-24.637,83.97-47,117c-9.621,14.208-19.852,25.25-20,42
				c-0.25,28.085,23.582,55.927,41,72c20.965,19.349,44.123,33.192,68,45c51.795,25.614,103.658,48.672,150,75
				c24.596,13.974,49.32,26.591,77,36c28.119,9.559,58.353,14.506,92,20C629.756,2135.396,702.404,2141.995,771.096,2127z"/>
		</g>
	</g>
</g>
<g id="Details_1_">
	<g id="Collar_2_">
		<path id="rear_1_" fill="#FFFFFF" d="M1149.133,545.392c36.393,15.276,100.084,48.809,280.037,59.163
			c95.256,5.481,184.864,1.513,262.289-6.409c116.392-11.91,209.468-34.684,286.447-63.107
			c91.016-33.606,136.074-61.135,169.6-61.135c17.3,0,54.925,9.591,82.536,16.561c-12.187-4.73-24.304-9.288-36.148-13.625
			c-11.062-4.049-18.663-31.407-30.813-59.283c-31.848-73.074-71.259-186.756-104.3-180.373c-1.956,0.378-4.044,0.857-6.296,1.434
			c-15.934,4.083-41.434,13.425-85.558,26.05c-32.474,9.292-74,19.666-134.333,33.333c-65.421,14.819-296.556,38.106-406.667,26
			c-105.624-11.613-136.444-28.334-162.667-32.667c-5.39-0.891-7.914-0.743-13.667-0.667
			c-25.333,0.334-42.711,68.896-85.289,130.357c-6.338,9.148-25.306,27.272-38.042,44.048
			c-12.736,16.776-21.438,30.641-26.336,33.261c-0.037,0.02-0.075,0.04-0.112,0.06
			C1102.177,504.523,1114.043,530.663,1149.133,545.392z"/>
		<path id="front" fill-rule="evenodd" fill="#FFFFFF" d="M1164.097,1153c13.51-98.795,25.965-203.07,38-305
			c1.729-14.63,6.684-32.731,3-44c-2.615-8.004-19.061-17.239-27-24c-10.439-8.889-19.77-16.821-28-24
			c-17.799-15.526-34.094-37.909-57-46c-65.008-22.963-93.269,38.964-132,58c-13.029,6.404-48.463,13.317-60,0
			c0.363-15.45,14.643-26.477,20-40c4.6-11.606,6.445-23.741,10-35c3.637-11.514,7.893-22.04,13-33
			c47.469-101.867,127.023-180.75,181-277c11.322-20.188,21.619-39.394,35-57c13.014-17.121,28.035-32.719,43-49
			c15.959-17.363,29.24-30.664,48-43c18.107-11.908,37.908-22.631,60-32c86.17-36.542,183.93-62.238,292-75
			c84.113-9.933,187.133-8.286,269,0c29.68,3.004,59.592,3.568,86,10c19.158,4.666,40.063,20.602,54,32
			c5.824,4.762,12.932,7.932,17,12c9.119,9.118,15.918,22.363,25,33c19.119,22.394,34.467,43.082,44,73
			c3.91,12.271,4.873,35.858,13,46c7.5,9.359,34.416,7.022,36,24c0.736,7.876-11.785,22.426-18,29c-8.719,9.223-16.396,16.729-23,24
			c-45.854,50.492-87.613,104.68-127,157c-41.816,55.551-83.959,104.538-129,154c-15.121,16.606-33.49,31.106-46,49
			c-6.174,8.831-13.668,31.616-25,33c-8.139,0.994-27.689-10.458-37-15c-84.262-41.104-154.104-88.102-233-132
			c-139.813,218.525-183.699,532.961-248,827c-52.127,0.539-103.988,1.345-155,3C1130.573,1385.505,1147.987,1270.811,1164.097,1153
			z M1491.097,615c-4.338-0.658-22.197,2.995-33,4c-0.955,0.089-11.879-0.752-8,1C1466.063,620.634,1478.368,617.604,1491.097,615z
			 M1302.097,800c-4.783,4.46,2.217,12.631,3,18C1307.616,819.677,1300.661,807.019,1302.097,800z"/>
	</g>
</g>
<g id="Shadows">
	<g id="Polo_1_">
		<image display="none" width="3435" height="4455" id="rear" xlink:href="C1A48D9B.png" >
		</image>
		<image width="3435" height="4455" id="front_1_" xlink:href="C1A48D99.png" >
		</image>
	</g>
</g>
</svg>
